Engine\Binaries\ThirdParty\Ogg\Win32\VS2013\libogg.dll	2015-03-13T05:54:01.234+02:00
Engine\Binaries\ThirdParty\Vorbis\Win32\VS2013\libvorbis.dll	2015-03-13T05:58:17.393+02:00
Engine\Binaries\ThirdParty\Vorbis\Win32\VS2013\libvorbisfile.dll	2015-03-13T05:58:17.410+02:00
Engine\Binaries\ThirdParty\PhysX\APEX-1.3\Win32\VS2013\ApexFrameworkPROFILE_x86.dll	2015-03-13T05:55:07.163+02:00
Engine\Binaries\ThirdParty\PhysX\APEX-1.3\Win32\VS2013\APEX_ClothingPROFILE_x86.dll	2015-03-13T05:54:27.904+02:00
Engine\Binaries\ThirdParty\PhysX\APEX-1.3\Win32\VS2013\APEX_DestructiblePROFILE_x86.dll	2015-03-13T05:54:36.280+02:00
Engine\Binaries\ThirdParty\PhysX\APEX-1.3\Win32\VS2013\APEX_LegacyPROFILE_x86.dll	2015-03-13T05:54:47.012+02:00
Engine\Binaries\ThirdParty\PhysX\APEX-1.3\Win32\VS2013\APEX_LoaderPROFILE_x86.dll	2015-03-13T05:54:47.035+02:00
Engine\Binaries\ThirdParty\PhysX\APEX-1.3\Win32\VS2013\APEX_ParticlesPROFILE_x86.dll	2015-03-13T05:54:51.319+02:00
Engine\Binaries\ThirdParty\PhysX\PhysX-3.3\Win32\VS2013\nvToolsExt32_1.dll	2015-03-13T05:55:35.787+02:00
Engine\Binaries\ThirdParty\PhysX\PhysX-3.3\Win32\VS2013\PhysX3CommonPROFILE_x86.dll	2015-03-13T05:55:47.364+02:00
Engine\Binaries\ThirdParty\PhysX\PhysX-3.3\Win32\VS2013\PhysX3CookingPROFILE_x86.dll	2015-03-13T05:55:47.397+02:00
Engine\Binaries\ThirdParty\PhysX\PhysX-3.3\Win32\VS2013\PhysX3GpuPROFILE_x86.dll	2015-03-13T05:56:19.755+02:00
Engine\Binaries\ThirdParty\PhysX\PhysX-3.3\Win32\VS2013\PhysX3PROFILE_x86.dll	2015-03-13T05:56:31.491+02:00
UnrealEngineTests\Binaries\Win32\UnrealEngineTests-Win32-Shipping.exe	2015-04-02T18:08:11.305+03:00
UnrealEngineTests.exe	2015-04-02T18:08:55.599+03:00
Engine\Extras\Redist\en-us\UE4PrereqSetup_x86.exe	2015-03-14T02:53:42.060+02:00
Engine\Build\build.properties	2015-03-17T17:56:19.834+02:00
